[["P0010001","state","county"],
["54571","01","001"],
["182265","01","003"],
["27457","01","005"],
["22915","01","007"],
["57322","01","009"],
["10914","01","011"],
["20947","01","013"],
["118572","01","015"],
["34215","01","017"],
["25989","01","019"],
["43643","01","021"],
["13859","01","023"],
["25833","01","025"],
["13932","01","027"],
["14972","01","029"],
["49948","01","031"],
["54428","01","033"],
["13228","01","035"],
["11539","01","037"],
["37765","01","039"],
["13906","01","041"],
["80406","01","043"],
["50251","01","045"],
["43820","01","047"],
["71109","01","049"],
["79303","01","051"],
["38319","01","053"],
["104430","01","055"],
["17241","01","057"],
["31704","01","059"],
["26790","01","061"],
["9045","01","063"],
["15760","01","065"],
["17302","01","067"],
["101547","01","069"],
["53227","01","071"],
["658466","01","073"],
["14564","01","075"],
["92709","01","077"],
["34339","01","079"],
["140247","01","081"],
["82782","01","083"],
["11299","01","085"],
["21452","01","087"],
["334811","01","089"],
["21027","01","091"],
["30776","01","093"],
["93019","01","095"],
["412992","01","097"],
["23068","01","099"],
["229363","01","101"],
["119490","01","103"],
["10591","01","105"],
["19746","01","107"],
["32899","01","109"],
["22913","01","111"],
["52947","01","113"],
["83593","01","115"],
["195085","01","117"],
["13763","01","119"],
["82291","01","121"],
["41616","01","123"],
["194656","01","125"],
["67023","01","127"],
["17581","01","129"],
["11670","01","131"],
["24484","01","133"],
["3141","02","013"],
["5561","02","016"],
["291826","02","020"],
["17013","02","050"],
["997","02","060"],
["1826","02","068"],
["4847","02","070"],
["97581","02","090"],
["2508","02","100"],
["2150","02","105"],
["31275","02","110"],
["55400","02","122"],
["13477","02","130"],
["13592","02","150"],
["1631","02","164"],
["88995","02","170"],
["9492","02","180"],
["9430","02","185"],
["7523","02","188"],
["3815","02","195"],
["5559","02","198"],
["8881","02","220"],
["968","02","230"],
["7029","02","240"],
["9636","02","261"],
["7459","02","270"],
["2369","02","275"],
["662","02","282"],
["5588","02","290"],
["71518","04","001"],
["131346","04","003"],
["134421","04","005"],
["53597","04","007"],
["37220","04","009"],
["8437","04","011"],
["20489","04","012"],
["3817117","04","013"],
["200186","04","015"],
["107449","04","017"],
["980263","04","019"],
["375770","04","021"],
["47420","04","023"],
["211033","04","025"],
["195751","04","027"],
["19019","05","001"],
["21853","05","003"],
["41513","05","005"],
["221339","05","007"],
["36903","05","009"],
["11508","05","011"],
["5368","05","013"],
["27446","05","015"],
["11800","05","017"],
["22995","05","019"],
["16083","05","021"],
["25970","05","023"],
["8689","05","025"],
["24552","05","027"],
["21273","05","029"],
["96443","05","031"],
["61948","05","033"],
["50902","05","035"],
["17870","05","037"],
["8116","05","039"],
["13008","05","041"],
["18509","05","043"],
["113237","05","045"],
["18125","05","047"],
["12245","05","049"],
["96024","05","051"],
["17853","05","053"],
["42090","05","055"],
["22609","05","057"],
["32923","05","059"],
["13789","05","061"],
["36647","05","063"],
["13696","05","065"],
["17997","05","067"],
["77435","05","069"],
["25540","05","071"],
["7645","05","073"],
["17415","05","075"],
["10424","05","077"],
["14134","05","079"],
["13171","05","081"],
["22353","05","083"],
["68356","05","085"],
["15717","05","087"],
["16653","05","089"],
["43462","05","091"],
["46480","05","093"],
["8149","05","095"],
["9487","05","097"],
["8997","05","099"],
["8330","05","101"],
["26120","05","103"],
["10445","05","105"],
["21757","05","107"],
["11291","05","109"],
["24583","05","111"],
["20662","05","113"],
["61754","05","115"],
["8715","05","117"],
["382748","05","119"],
["17969","05","121"],
["28258","05","123"],
["107118","05","125"],
["11233","05","127"],
["8195","05","129"],
["125744","05","131"],
["17058","05","133"],
["17264","05","135"],
["12394","05","137"],
["41639","05","139"],
["17295","05","141"],
["203065","05","143"],
["77076","05","145"],
["7260","05","147"],
["22185","05","149"],
["1510271","06","001"],
["1175","06","003"],
["38091","06","005"],
["220000","06","007"],
["45578","06","009"],
["21419","06","011"],
["1049025","06","013"],
["28610","06","015"],
["181058","06","017"],
["930450","06","019"],
["28122","06","021"],
["134623","06","023"],
["174528","06","025"],
["18546","06","027"],
["839631","06","029"],
["152982","06","031"],
["64665","06","033"],
["34895","06","035"],
["9818605","06","037"],
["150865","06","039"],
["252409","06","041"],
["18251","06","043"],
["87841","06","045"],
["255793","06","047"],
["9686","06","049"],
["14202","06","051"],
["415057","06","053"],
["136484","06","055"],
["98764","06","057"],
["3010232","06","059"],
["348432","06","061"],
["20007","06","063"],
["2189641","06","065"],
["1418788","06","067"],
["55269","06","069"],
["2035210","06","071"],
["3095313","06","073"],
["805235","06","075"],
["685306","06","077"],
["269637","06","079"],
["718451","06","081"],
["423895","06","083"],
["1781642","06","085"],
["262382","06","087"],
["177223","06","089"],
["3240","06","091"],
["44900","06","093"],
["413344","06","095"],
["483878","06","097"],
["514453","06","099"],
["94737","06","101"],
["63463","06","103"],
["13786","06","105"],
["442179","06","107"],
["55365","06","109"],
["823318","06","111"],
["200849","06","113"],
["72155","06","115"],
["441603","08","001"],
["15445","08","003"],
["572003","08","005"],
["12084","08","007"],
["3788","08","009"],
["6499","08","011"],
["294567","08","013"],
["55889","08","014"],
["17809","08","015"],
["1836","08","017"],
["9088","08","019"],
["8256","08","021"],
["3524","08","023"],
["5823","08","025"],
["4255","08","027"],
["30952","08","029"],
["600158","08","031"],
["2064","08","033"],
["285465","08","035"],
["52197","08","037"],
["23086","08","039"],
["622263","08","041"],
["46824","08","043"],
["56389","08","045"],
["5441","08","047"],
["14843","08","049"],
["15324","08","051"],
["843","08","053"],
["6711","08","055"],
["1394","08","057"],
["534543","08","059"],
["1398","08","061"],
["8270","08","063"],
["7310","08","065"],
["51334","08","067"],
["299630","08","069"],
["15507","08","071"],
["5467","08","073"],
["22709","08","075"],
["146723","08","077"],
["712","08","079"],
["13795","08","081"],
["25535","08","083"],
["41276","08","085"],
["28159","08","087"],
["18831","08","089"],
["4436","08","091"],
["16206","08","093"],
["4442","08","095"],
["17148","08","097"],
["12551","08","099"],
["159063","08","101"],
["6666","08","103"],
["11982","08","105"],
["23509","08","107"],
["6108","08","109"],
["699","08","111"],
["7359","08","113"],
["2379","08","115"],
["27994","08","117"],
["23350","08","119"],
["4814","08","121"],
["252825","08","123"],
["10043","08","125"],
["916829","09","001"],
["894014","09","003"],
["189927","09","005"],
["165676","09","007"],
["862477","09","009"],
["274055","09","011"],
["152691","09","013"],
["118428","09","015"],
["162310","10","001"],
["538479","10","003"],
["197145","10","005"],
["601723","11","001"],
["247336","12","001"],
["27115","12","003"],
["168852","12","005"],
["28520","12","007"],
["543376","12","009"],
["1748066","12","011"],
["14625","12","013"],
["159978","12","015"],
["141236","12","017"],
["190865","12","019"],
["321520","12","021"],
["67531","12","023"],
["34862","12","027"],
["16422","12","029"],
["864263","12","031"],
["297619","12","033"],
["95696","12","035"],
["11549","12","037"],
["46389","12","039"],
["16939","12","041"],
["12884","12","043"],
["15863","12","045"],
["14799","12","047"],
["27731","12","049"],
["39140","12","051"],
["172778","12","053"],
["98786","12","055"],
["1229226","12","057"],
["19927","12","059"],
["138028","12","061"],
["49746","12","063"],
["14761","12","065"],
["8870","12","067"],
["297052","12","069"],
["618754","12","071"],
["275487","12","073"],
["40801","12","075"],
["8365","12","077"],
["19224","12","079"],
["322833","12","081"],
["331298","12","083"],
["146318","12","085"],
["2496435","12","086"],
["73090","12","087"],
["73314","12","089"],
["180822","12","091"],
["39996","12","093"],
["1145956","12","095"],
["268685","12","097"],
["1320134","12","099"],
["464697","12","101"],
["916542","12","103"],
["602095","12","105"],
["74364","12","107"],
["190039","12","109"],
["277789","12","111"],
["151372","12","113"],
["379448","12","115"],
["422718","12","117"],
["93420","12","119"],
["41551","12","121"],
["22570","12","123"],
["15535","12","125"],
["494593","12","127"],
["30776","12","129"],
["55043","12","131"],
["24896","12","133"],
["18236","13","001"],
["8375","13","003"],
["11096","13","005"],
["3451","13","007"],
["45720","13","009"],
["18395","13","011"],
["69367","13","013"],
["100157","13","015"],
["17634","13","017"],
["19286","13","019"],
["155547","13","021"],
["13063","13","023"],
["18411","13","025"],
["16243","13","027"],
["30233","13","029"],
["70217","13","031"],
["23316","13","033"],
["23655","13","035"],
["6694","13","037"],
["50513","13","039"],
["10998","13","043"],
["110527","13","045"],
["63942","13","047"],
["12171","13","049"],
["265128","13","051"],
["11267","13","053"],
["26015","13","055"],
["214346","13","057"],
["116714","13","059"],
["3183","13","061"],
["259424","13","063"],
["6798","13","065"],
["688078","13","067"],
["42356","13","069"],
["45498","13","071"],
["124053","13","073"],
["17212","13","075"],
["127317","13","077"],
["12630","13","079"],
["23439","13","081"],
["16633","13","083"],
["22330","13","085"],
["27842","13","087"],
["691893","13","089"],
["21796","13","091"],
["14918","13","093"],
["94565","13","095"],
["132403","13","097"],
["11008","13","099"],
["4034","13","101"],
["52250","13","103"],
["20166","13","105"],
["22598","13","107"],
["11000","13","109"],
["23682","13","111"],
["106567","13","113"],
["96317","13","115"],
["175511","13","117"],
["22084","13","119"],
["920581","13","121"],
["28292","13","123"],
["3082","13","125"],
["79626","13","127"],
["55186","13","129"],
["25011","13","131"],
["15994","13","133"],
["805321","13","135"],
["43041","13","137"],
["179684","13","139"],
["9429","13","141"],
["28780","13","143"],
["32024","13","145"],
["25213","13","147"],
["11834","13","149"],
["203922","13","151"],
["139900","13","153"],
["9538","13","155"],
["60485","13","157"],
["13900","13","159"],
["15068","13","161"],
["16930","13","163"],
["8340","13","165"],
["9980","13","167"],
["28669","13","169"],
["18317","13","171"],
["10078","13","173"],
["48434","13","175"],
["28298","13","177"],
["63453","13","179"],
["7996","13","181"],
["14464","13","183"],
["109233","13","185"],
["29966","13","187"],
["21875","13","189"],
["14333","13","191"],
["14740","13","193"],
["28120","13","195"],
["8742","13","197"],
["21992","13","199"],
["6125","13","201"],
["23498","13","205"],
["26424","13","207"],
["9123","13","209"],
["17868","13","211"],
["39628","13","213"],
["189885","13","215"],
["99958","13","217"],
["32808","13","219"],
["14899","13","221"],
["142324","13","223"],
["27695","13","225"],
["29431","13","227"],
["18758","13","229"],
["17869","13","231"],
["41475","13","233"],
["12010","13","235"],
["21218","13","237"],
["2513","13","239"],
["16276","13","241"],
["7719","13","243"],
["200549","13","245"],
["85215","13","247"],
["5010","13","249"],
["14593","13","251"],
["8729","13","253"],
["64073","13","255"],
["26175","13","257"],
["6058","13","259"],
["32819","13","261"],
["6865","13","263"],
["1717","13","265"],
["25520","13","267"],
["8906","13","269"],
["16500","13","271"],
["9315","13","273"],
["44720","13","275"],
["40118","13","277"],
["27223","13","279"],
["10471","13","281"],
["6885","13","283"],
["67044","13","285"],
["8930","13","287"],
["9023","13","289"],
["21356","13","291"],
["27153","13","293"],
["68756","13","295"],
["83768","13","297"],
["36312","13","299"],
["5834","13","301"],
["21187","13","303"],
["30099","13","305"],
["2799","13","307"],
["7421","13","309"],
["27144","13","311"],
["102599","13","313"],
["9255","13","315"],
["10593","13","317"],
["9563","13","319"],
["21679","13","321"],
["185079","15","001"],
["953207","15","003"],
["90","15","005"],
["67091","15","007"],
["154834","15","009"],
["392365","16","001"],
["3976","16","003"],
["82839","16","005"],
["5986","16","007"],
["9285","16","009"],
["45607","16","011"],
["21376","16","013"],
["7028","16","015"],
["40877","16","017"],
["104234","16","019"],
["10972","16","021"],
["2891","16","023"],
["1117","16","025"],
["188923","16","027"],
["6963","16","029"],
["22952","16","031"],
["982","16","033"],
["8761","16","035"],
["4368","16","037"],
["27038","16","039"],
["12786","16","041"],
["13242","16","043"],
["16719","16","045"],
["15464","16","047"],
["16267","16","049"],
["26140","16","051"],
["22374","16","053"],
["138494","16","055"],
["37244","16","057"],
["7936","16","059"],
["3821","16","061"],
["5208","16","063"],
["37536","16","065"],
["20069","16","067"],
["39265","16","069"],
["4286","16","071"],
["11526","16","073"],
["22623","16","075"],
["7817","16","077"],
["12765","16","079"],
["10170","16","081"],
["77230","16","083"],
["9862","16","085"],
["10198","16","087"],
["67103","17","001"],
["8238","17","003"],
["17768","17","005"],
["54165","17","007"],
["6937","17","009"],
["34978","17","011"],
["5089","17","013"],
["15387","17","015"],
["13642","17","017"],
["201081","17","019"],
["34800","17","021"],
["16335","17","023"],
["13815","17","025"],
["37762","17","027"],
["53873","17","029"],
["5194675","17","031"],
["19817","17","033"],
["11048","17","035"],
["105160","17","037"],
["16561","17","039"],
["19980","17","041"],
["916924","17","043"],
["18576","17","045"],
["6721","17","047"],
["34242","17","049"],
["22140","17","051"],
["14081","17","053"],
["39561","17","055"],
["37069","17","057"],
["5589","17","059"],
["13886","17","061"],
["50063","17","063"],
["8457","17","065"],
["19104","17","067"],
["4320","17","069"],
["7331","17","071"],
["50486","17","073"],
["29718","17","075"],
["60218","17","077"],
["9698","17","079"],
["38827","17","081"],
["22985","17","083"],
["22678","17","085"],
["12582","17","087"],
["515269","17","089"],
["113449","17","091"],
["114736","17","093"],
["52919","17","095"],
["703462","17","097"],
["113924","17","099"],
["16833","17","101"],
["36031","17","103"],
["38950","17","105"],
["30305","17","107"],
["32612","17","109"],
["308760","17","111"],
["169572","17","113"],
["110768","17","115"],
["47765","17","117"],
["269282","17","119"],
["39437","17","121"],
["12640","17","123"],
["14666","17","125"],
["15429","17","127"],
["12705","17","129"],
["16434","17","131"],
["32957","17","133"],
["30104","17","135"],
["35547","17","137"],
["14846","17","139"],
["53497","17","141"],
["186494","17","143"],
["22350","17","145"],
["16729","17","147"],
["16430","17","149"],
["4470","17","151"],
["6161","17","153"],
["6006","17","155"],
["33476","17","157"],
["16233","17","159"],
["147546","17","161"],
["270056","17","163"],
["24913","17","165"],
["197465","17","167"],
["7544","17","169"],
["5355","17","171"],
["22363","17","173"],
["5994","17","175"],
["47711","17","177"],
["135394","17","179"],
["17808","17","181"],
["81625","17","183"],
["11947","17","185"],
["17707","17","187"],
["14716","17","189"],
["16760","17","191"],
["14665","17","193"],
["58498","17","195"],
["677560","17","197"],
["66357","17","199"],
["295266","17","201"],
["38664","17","203"],
["34387","18","001"],
["355329","18","003"],
["76794","18","005"],
["8854","18","007"],
["12766","18","009"],
["56640","18","011"],
["15242","18","013"],
["20155","18","015"],
["38966","18","017"],
["110232","18","019"],
["26890","18","021"],
["33224","18","023"],
["10713","18","025"],
["31648","18","027"],
["50047","18","029"],
["25740","18","031"],
["42223","18","033"],
["117671","18","035"],
["41889","18","037"],
["197559","18","039"],
["24277","18","041"],
["74578","18","043"],
["17240","18","045"],
["23087","18","047"],
["20836","18","049"],
["33503","18","051"],
["70061","18","053"],
["33165","18","055"],
["274569","18","057"],
["70002","18","059"],
["39364","18","061"],
["145448","18","063"],
["49462","18","065"],
["82752","18","067"],
["37124","18","069"],
["42376","18","071"],
["33478","18","073"],
["21253","18","075"],
["32428","18","077"],
["28525","18","079"],
["139654","18","081"],
["38440","18","083"],
["77358","18","085"],
["37128","18","087"],
["496005","18","089"],
["111467","18","091"],
["46134","18","093"],
["131636","18","095"],
["903393","18","097"],
["47051","18","099"],
["10334","18","101"],
["36903","18","103"],
["137974","18","105"],
["38124","18","107"],
["68894","18","109"],
["14244","18","111"],
["47536","18","113"],
["6128","18","115"],
["19840","18","117"],
["21575","18","119"],
["17339","18","121"],
["19338","18","123"],
["12845","18","125"],
["164343","18","127"],
["25910","18","129"],
["13402","18","131"],
["37963","18","133"],
["26171","18","135"],
["28818","18","137"],
["17392","18","139"],
["266931","18","141"],
["24181","18","143"],
["44436","18","145"],
["20952","18","147"],
["23363","18","149"],
["34185","18","151"],
["21475","18","153"],
["10613","18","155"],
["172780","18","157"],
["15936","18","159"],
["7516","18","161"],
["179703","18","163"],
["16212","18","165"],
["107848","18","167"],
["32888","18","169"],
["8508","18","171"],
["59689","18","173"],
["28262","18","175"],
["68917","18","177"],
["27636","18","179"],
["24643","18","181"],
["33292","18","183"],
["7682","19","001"],
["4029","19","003"],
["14330","19","005"],
["12887","19","007"],
["6119","19","009"],
["26076","19","011"],
["131090","19","013"],
["26306","19","015"],
["24276","19","017"],
["20958","19","019"],
["20260","19","021"],
["14867","19","023"],
["9670","19","025"],
["20816","19","027"],
["13956","19","029"],
["18499","19","031"],
["44151","19","033"],
["12072","19","035"],
["12439","19","037"],
["9286","19","039"],
["16667","19","041"],
["18129","19","043"],
["49116","19","045"],
["17096","19","047"],
["66135","19","049"],
["8753","19","051"],
["8457","19","053"],
["17764","19","055"],
["40325","19","057"],
["16667","19","059"],
["93653","19","061"],
["10302","19","063"],
["20880","19","065"],
["16303","19","067"],
["10680","19","069"],
["7441","19","071"],
["9336","19","073"],
["12453","19","075"],
["10954","19","077"],
["15673","19","079"],
["11341","19","081"],
["17534","19","083"],
["14928","19","085"],
["20145","19","087"],
["9566","19","089"],
["9815","19","091"],
["7089","19","093"],
["16355","19","095"],
["19848","19","097"],
["36842","19","099"],
["16843","19","101"],
["130882","19","103"],
["20638","19","105"],
["10511","19","107"],
["15543","19","109"],
["35862","19","111"],
["211226","19","113"],
["11387","19","115"],
["8898","19","117"],
["11581","19","119"],
["15679","19","121"],
["22381","19","123"],
["33309","19","125"],
["40648","19","127"],
["15059","19","129"],
["10776","19","131"],
["9243","19","133"],
["7970","19","135"],
["10740","19","137"],
["42745","19","139"],
["14398","19","141"],
["6462","19","143"],
["15932","19","145"],
["9421","19","147"],
["24986","19","149"],
["7310","19","151"],
["430640","19","153"],
["93158","19","155"],
["18914","19","157"],
["5131","19","159"],
["10350","19","161"],
["165224","19","163"],
["12167","19","165"],
["33704","19","167"],
["89542","19","169"],
["17767","19","171"],
["6317","19","173"],
["12534","19","175"],
["7570","19","177"],
["35625","19","179"],
["46225","19","181"],
["21704","19","183"],
["6403","19","185"],
["38013","19","187"],
["10866","19","189"],
["21056","19","191"],
["102172","19","193"],
["7598","19","195"],
["13229","19","197"],
["13371","20","001"],
["8102","20","003"],
["16924","20","005"],
["4861","20","007"],
["27674","20","009"],
["15173","20","011"],
["9984","20","013"],
["65880","20","015"],
["2790","20","017"],
["3669","20","019"],
["21603","20","021"],
["2726","20","023"],
["2215","20","025"],
["8535","20","027"],
["9533","20","029"],
["8601","20","031"],
["1891","20","033"],
["36311","20","035"],
["39134","20","037"],
["2961","20","039"],
["19754","20","041"],
["7945","20","043"],
["110826","20","045"],
["3037","20","047"],
["2882","20","049"],
["28452","20","051"],
["6497","20","053"],
["36776","20","055"],
["33848","20","057"],
["25992","20","059"],
["34362","20","061"],
["2695","20","063"],
["2597","20","065"],
["7829","20","067"],
["6006","20","069"],
["1247","20","071"],
["6689","20","073"],
["2690","20","075"],
["6034","20","077"],
["34684","20","079"],
["4256","20","081"],
["1916","20","083"],
["13462","20","085"],
["19126","20","087"],
["3077","20","089"],
["544179","20","091"],
["3977","20","093"],
["7858","20","095"],
["2553","20","097"],
["21607","20","099"],
["1750","20","101"],
["76227","20","103"],
["3241","20","105"],
["9656","20","107"],
["2756","20","109"],
["33690","20","111"],
["29180","20","113"],
["12660","20","115"],
["10117","20","117"],
["4575","20","119"],
["32787","20","121"],
["6373","20","123"],
["35471","20","125"],
["5923","20","127"],
["3233","20","129"],
["10178","20","131"],
["16512","20","133"],
["3107","20","135"],
["5671","20","137"],
["16295","20","139"],
["3858","20","141"],
["6091","20","143"],
["6973","20","145"],
["5642","20","147"],
["21604","20","149"],
["9656","20","151"],
["2519","20","153"],
["64511","20","155"],
["4980","20","157"],
["10083","20","159"],
["71115","20","161"],
["5181","20","163"],
["3307","20","165"],
["6970","20","167"],
["55606","20","169"],
["4936","20","171"],
["498365","20","173"],
["22952","20","175"],
["177934","20","177"],
["2556","20","179"],
["6010","20","181"],
["3853","20","183"],
["4437","20","185"],
["2235","20","187"],
["5724","20","189"],
["24132","20","191"],
["7900","20","193"],
["3001","20","195"],
["7053","20","197"],
["1485","20","199"],
["5799","20","201"],
["2234","20","203"],
["9409","20","205"],
["3309","20","207"],
["157505","20","209"],
["18656","21","001"],
["19956","21","003"],
["21421","21","005"],
["8249","21","007"],
["42173","21","009"],
["11591","21","011"],
["28691","21","013"],
["118811","21","015"],
["19985","21","017"],
["49542","21","019"],
["28432","21","021"],
["8488","21","023"],
["13878","21","025"],
["20059","21","027"],
["74319","21","029"],
["12690","21","031"],
["12984","21","033"],
["37191","21","035"],
["90336","21","037"],
["5104","21","039"],
["10811","21","041"],
["27720","21","043"],
["15955","21","045"],
["73955","21","047"],
["35613","21","049"],
["21730","21","051"],
["10272","21","053"],
["9315","21","055"],
["6856","21","057"],
["96656","21","059"],
["12161","21","061"],
["7852","21","063"],
["14672","21","065"],
["295803","21","067"],
["14348","21","069"],
["39451","21","071"],
["49285","21","073"],
["6813","21","075"],
["8589","21","077"],
["16912","21","079"],
["24662","21","081"],
["37121","21","083"],
["25746","21","085"],
["11258","21","087"],
["36910","21","089"],
["8565","21","091"],
["105543","21","093"],
["29278","21","095"],
["18846","21","097"],
["18199","21","099"],
["46250","21","101"],
["15416","21","103"],
["4902","21","105"],
["46920","21","107"],
["13494","21","109"],
["741096","21","111"],
["48586","21","113"],
["23356","21","115"],
["159720","21","117"],
["16346","21","119"],
["31883","21","121"],
["14193","21","123"],
["58849","21","125"],
["15860","21","127"],
["7887","21","129"],
["11310","21","131"],
["24519","21","133"],
["13870","21","135"],
["24742","21","137"],
["9519","21","139"],
["26835","21","141"],
["8314","21","143"],
["65565","21","145"],
["18306","21","147"],
["9531","21","149"],
["82916","21","151"],
["13333","21","153"],
["19820","21","155"],
["31448","21","157"],
["12929","21","159"],
["17490","21","161"],
["28602","21","163"],
["6306","21","165"],
["21331","21","167"],
["10099","21","169"],
["10963","21","171"],
["26499","21","173"],
["13923","21","175"],
["31499","21","177"],
["43437","21","179"],
["7135","21","181"],
["23842","21","183"],
["60316","21","185"],
["10841","21","187"],
["4755","21","189"],
["14877","21","191"],
["28712","21","193"],
["65024","21","195"],
["12613","21","197"],
["63063","21","199"],
["2282","21","201"],
["17056","21","203"],
["23333","21","205"],
["17565","21","207"],
["47173","21","209"],
["42074","21","211"],
["17327","21","213"],
["17061","21","215"],
["24512","21","217"],
["12460","21","219"],
["14339","21","221"],
["8809","21","223"],
["15007","21","225"],
["113792","21","227"],
["11717","21","229"],
["20813","21","231"],
["13621","21","233"],
["35637","21","235"],
["7355","21","237"],
["24939","21","239"],
["61773","22","001"],
["25764","22","003"],
["107215","22","005"],
["23421","22","007"],
["42073","22","009"],
["35654","22","011"],
["14353","22","013"],
["116979","22","015"],
["254969","22","017"],
["192768","22","019"],
["10132","22","021"],
["6839","22","023"],
["10407","22","025"],
["17195","22","027"],
["20822","22","029"],
["26656","22","031"],
["440171","22","033"],
["7759","22","035"],
["20267","22","037"],
["33984","22","039"],
["20767","22","041"],
["22309","22","043"],
["73240","22","045"],
["33387","22","047"],
["16274","22","049"],
["432552","22","051"],
["31594","22","053"],
["221578","22","055"],
["96318","22","057"],
["14890","22","059"],
["46735","22","061"],
["128026","22","063"],
["12093","22","065"],
["27979","22","067"],
["39566","22","069"],
["343829","22","071"],
["153720","22","073"],
["23042","22","075"],
["22802","22","077"],
["131613","22","079"],
["9091","22","081"],
["20725","22","083"],
["24233","22","085"],
["35897","22","087"],
["52780","22","089"],
["11203","22","091"],
["22102","22","093"],
["45924","22","095"],
["83384","22","097"],
["52160","22","099"],
["54650","22","101"],
["233740","22","103"],
["121097","22","105"],
["5252","22","107"],
["111860","22","109"],
["22721","22","111"],
["57999","22","113"],
["52334","22","115"],
["47168","22","117"],
["41207","22","119"],
["23788","22","121"],
["11604","22","123"],
["15625","22","125"],
["15313","22","127"],
["107702","23","001"],
["71870","23","003"],
["281674","23","005"],
["30768","23","007"],
["54418","23","009"],
["122151","23","011"],
["39736","23","013"],
["34457","23","015"],
["57833","23","017"],
["153923","23","019"],
["17535","23","021"],
["35293","23","023"],
["52228","23","025"],
["38786","23","027"],
["32856","23","029"],
["197131","23","031"],
["75087","24","001"],
["537656","24","003"],
["805029","24","005"],
["88737","24","009"],
["33066","24","011"],
["167134","24","013"],
["101108","24","015"],
["146551","24","017"],
["32618","24","019"],
["233385","24","021"],
["30097","24","023"],
["244826","24","025"],
["287085","24","027"],
["20197","24","029"],
["971777","24","031"],
["863420","24","033"],
["47798","24","035"],
["105151","24","037"],
["26470","24","039"],
["37782","24","041"],
["147430","24","043"],
["98733","24","045"],
["51454","24","047"],
["620961","24","510"],
["215888","25","001"],
["131219","25","003"],
["548285","25","005"],
["16535","25","007"],
["743159","25","009"],
["71372","25","011"],
["463490","25","013"],
["158080","25","015"],
["1503085","25","017"],
["10172","25","019"],
["670850","25","021"],
["494919","25","023"],
["722023","25","025"],
["798552","25","027"],
["10942","26","001"],
["9601","26","003"],
["111408","26","005"],
["29598","26","007"],
["23580","26","009"],
["15899","26","011"],
["8860","26","013"],
["59173","26","015"],
["107771","26","017"],
["17525","26","019"],
["156813","26","021"],
["45248","26","023"],
["136146","26","025"],
["52293","26","027"],
["25949","26","029"],
["26152","26","031"],
["38520","26","033"],
["30926","26","035"],
["75382","26","037"],
["14074","26","039"],
["37069","26","041"],
["26168","26","043"],
["107759","26","045"],
["32694","26","047"],
["425790","26","049"],
["25692","26","051"],
["16427","26","053"],
["86986","26","055"],
["42476","26","057"],
["46688","26","059"],
["36628","26","061"],
["33118","26","063"],
["280895","26","065"],
["63905","26","067"],
["25887","26","069"],
["11817","26","071"],
["70311","26","073"],
["160248","26","075"],
["250331","26","077"],
["17153","26","079"],
["602622","26","081"],
["2156","26","083"],
["11539","26","085"],
["88319","26","087"],
["21708","26","089"],
["99892","26","091"],
["180967","26","093"],
["6631","26","095"],
["11113","26","097"],
["840978","26","099"],
["24733","26","101"],
["67077","26","103"],
["28705","26","105"],
["42798","26","107"],
["24029","26","109"],
["83629","26","111"],
["14849","26","113"],
["152021","26","115"],
["63342","26","117"],
["9765","26","119"],
["172188","26","121"],
["48460","26","123"],
["1202362","26","125"],
["26570","26","127"],
["21699","26","129"],
["6780","26","131"],
["23528","26","133"],
["8640","26","135"],
["24164","26","137"],
["263801","26","139"],
["13376","26","141"],
["24449","26","143"],
["200169","26","145"],
["163040","26","147"],
["61295","26","149"],
["43114","26","151"],
["8485","26","153"],
["70648","26","155"],
["55729","26","157"],
["76258","26","159"],
["344791","26","161"],
["1820584","26","163"],
["32735","26","165"],
["16202","27","001"],
["330844","27","003"],
["32504","27","005"],
["44442","27","007"],
["38451","27","009"],
["5269","27","011"],
["64013","27","013"],
["25893","27","015"],
["35386","27","017"],
["91042","27","019"],
["28567","27","021"],
["12441","27","023"],
["53887","27","025"],
["58999","27","027"],
["8695","27","029"],
["5176","27","031"],
["11687","27","033"],
["62500","27","035"],
["398552","27","037"],
["20087","27","039"],
["36009","27","041"],
["14553","27","043"],
["20866","27","045"],
["31255","27","047"],
["46183","27","049"],
["6018","27","051"],
["1152425","27","053"],
["19027","27","055"],
["20428","27","057"],
["37816","27","059"],
["45058","27","061"],
["10266","27","063"],
["16239","27","065"],
["42239","27","067"],
["4552","27","069"],
["13311","27","071"],
["7259","27","073"],
["10866","27","075"],
["4045","27","077"],
["27703","27","079"],
["5896","27","081"],
["25857","27","083"],
["36651","27","085"],
["5413","27","087"],
["9439","27","089"],
["20840","27","091"],
["23300","27","093"],
["26097","27","095"],
["33198","27","097"],
["39163","27","099"],
["8725","27","101"],
["32727","27","103"],
["21378","27","105"],
["6852","27","107"],
["144248","27","109"],
["57303","27","111"],
["13930","27","113"],
["29750","27","115"],
["9596","27","117"],
["31600","27","119"],
["10995","27","121"],
["508640","27","123"],
["4089","27","125"],
["16059","27","127"],
["15730","27","129"],
["64142","27","131"],
["9687","27","133"],
["15629","27","135"],
["200226","27","137"],
["129928","27","139"],
["88499","27","141"],
["15226","27","143"],
["150642","27","145"],
["36576","27","147"],
["9726","27","149"],
["9783","27","151"],
["24895","27","153"],
["3558","27","155"],
["21676","27","157"],
["13843","27","159"],
["19136","27","161"],
["238136","27","163"],
["11211","27","165"],
["6576","27","167"],
["51461","27","169"],
["124700","27","171"],
["10438","27","173"],
["32297","28","001"],
["37057","28","003"],
["13131","28","005"],
["19564","28","007"],
["8729","28","009"],
["34145","28","011"],
["14962","28","013"],
["10597","28","015"],
["17392","28","017"],
["8547","28","019"],
["9604","28","021"],
["16732","28","023"],
["20634","28","025"],
["26151","28","027"],
["29449","28","029"],
["19568","28","031"],
["161252","28","033"],
["74934","28","035"],
["8118","28","037"],
["22578","28","039"],
["14400","28","041"],
["21906","28","043"],
["43929","28","045"],
["187105","28","047"],
["245285","28","049"],
["19198","28","051"],
["9375","28","053"],
["1406","28","055"],
["23401","28","057"],
["139668","28","059"],
["17062","28","061"],
["7726","28","063"],
["12487","28","065"],
["67761","28","067"],
["10456","28","069"],
["47351","28","071"],
["55658","28","073"],
["80261","28","075"],
["12929","28","077"],
["23805","28","079"],
["82910","28","081"],
["32317","28","083"],
["34869","28","085"],
["59779","28","087"],
["95203","28","089"],
["27088","28","091"],
["37144","28","093"],
["36989","28","095"],
["10925","28","097"],
["29676","28","099"],
["21720","28","101"],
["11545","28","103"],
["47671","28","105"],
["34707","28","107"],
["55834","28","109"],
["12250","28","111"],
["40404","28","113"],
["29957","28","115"],
["25276","28","117"],
["8223","28","119"],
["141617","28","121"],
["28264","28","123"],
["4916","28","125"],
["27503","28","127"],
["16491","28","129"],
["17786","28","131"],
["29450","28","133"],
["15378","28","135"],
["28886","28","137"],
["22232","28","139"],
["19593","28","141"],
["10778","28","143"],
["27134","28","145"],
["15443","28","147"],
["48773","28","149"],
["51137","28","151"],
["20747","28","153"],
["10253","28","155"],
["9878","28","157"],
["19198","28","159"],
["12678","28","161"],
["28065","28","163"],
["25607","29","001"],
["17291","29","003"],
["5685","29","005"],
["25529","29","007"],
["35597","29","009"],
["12402","29","011"],
["17049","29","013"],
["19056","29","015"],
["12363","29","017"],
["162642","29","019"],
["89201","29","021"],
["42794","29","023"],
["9424","29","025"],
["44332","29","027"],
["44002","29","029"],
["75674","29","031"],
["9295","29","033"],
["6265","29","035"],
["99478","29","037"],
["13982","29","039"],
["7831","29","041"],
["77422","29","043"],
["7139","29","045"],
["221939","29","047"],
["20743","29","049"],
["75990","29","051"],
["17601","29","053"],
["24696","29","055"],
["7883","29","057"],
["16777","29","059"],
["8433","29","061"],
["12892","29","063"],
["15657","29","065"],
["13684","29","067"],
["31953","29","069"],
["101492","29","071"],
["15222","29","073"],
["6738","29","075"],
["275174","29","077"],
["10261","29","079"],
["8957","29","081"],
["22272","29","083"],
["9627","29","085"],
["4912","29","087"],
["10144","29","089"],
["40400","29","091"],
["10630","29","093"],
["674158","29","095"],
["117404","29","097"],
["218733","29","099"],
["52595","29","101"],
["4131","29","103"],
["35571","29","105"],
["33381","29","107"],
["38634","29","109"],
["10211","29","111"],
["52566","29","113"],
["12761","29","115"],
["15195","29","117"],
["23083","29","119"],
["15566","29","121"],
["12226","29","123"],
["9176","29","125"],
["28781","29","127"],
["3785","29","129"],
["24748","29","131"],
["14358","29","133"],
["15607","29","135"],
["8840","29","137"],
["12236","29","139"],
["20565","29","141"],
["18956","29","143"],
["58114","29","145"],
["23370","29","147"],
["10881","29","149"],
["13878","29","151"],
["9723","29","153"],
["18296","29","155"],
["18971","29","157"],
["42201","29","159"],
["45156","29","161"],
["18516","29","163"],
["89322","29","165"],
["31137","29","167"],
["52274","29","169"],
["4979","29","171"],
["10167","29","173"],
["25414","29","175"],
["23494","29","177"],
["6696","29","179"],
["14100","29","181"],
["360485","29","183"],
["9805","29","185"],
["18145","29","186"],
["65359","29","187"],
["998954","29","189"],
["23370","29","195"],
["4431","29","197"],
["4843","29","199"],
["39191","29","201"],
["8441","29","203"],
["6373","29","205"],
["29968","29","207"],
["32202","29","209"],
["6714","29","211"],
["51675","29","213"],
["26008","29","215"],
["21159","29","217"],
["32513","29","219"],
["25195","29","221"],
["13521","29","223"],
["36202","29","225"],
["2171","29","227"],
["18815","29","229"],
["319294","29","510"],
["9246","30","001"],
["12865","30","003"],
["6491","30","005"],
["5612","30","007"],
["10078","30","009"],
["1160","30","011"],
["81327","30","013"],
["5813","30","015"],
["11699","30","017"],
["1751","30","019"],
["8966","30","021"],
["9298","30","023"],
["2890","30","025"],
["11586","30","027"],
["90928","30","029"],
["89513","30","031"],
["1206","30","033"],
["13399","30","035"],
["884","30","037"],
["3079","30","039"],
["16096","30","041"],
["11406","30","043"],
["2072","30","045"],
["28746","30","047"],
["63395","30","049"],
["2339","30","051"],
["19687","30","053"],
["1734","30","055"],
["7691","30","057"],
["1891","30","059"],
["4223","30","061"],
["109299","30","063"],
["4538","30","065"],
["15636","30","067"],
["494","30","069"],
["4253","30","071"],
["6153","30","073"],
["1743","30","075"],
["7027","30","077"],
["1179","30","079"],
["40212","30","081"],
["9746","30","083"],
["10425","30","085"],
["9233","30","087"],
["11413","30","089"],
["3384","30","091"],
["34200","30","093"],
["9117","30","095"],
["3651","30","097"],
["6073","30","099"],
["5324","30","101"],
["718","30","103"],
["7369","30","105"],
["2168","30","107"],
["1017","30","109"],
["147972","30","111"],
["31364","31","001"],
["6685","31","003"],
["460","31","005"],
["690","31","007"],
["478","31","009"],
["5505","31","011"],
["11308","31","013"],
["2099","31","015"],
["3145","31","017"],
["46102","31","019"],
["6858","31","021"],
["8395","31","023"],
["25241","31","025"],
["8852","31","027"],
["3966","31","029"],
["5713","31","031"],
["9998","31","033"],
["6542","31","035"],
["10515","31","037"],
["9139","31","039"],
["10939","31","041"],
["21006","31","043"],
["9182","31","045"],
["24326","31","047"],
["1941","31","049"],
["6000","31","051"],
["36691","31","053"],
["517110","31","055"],
["2008","31","057"],
["5890","31","059"],
["3225","31","061"],
["2756","31","063"],
["4959","31","065"],
["22311","31","067"],
["2057","31","069"],
["2049","31","071"],
["2044","31","073"],
["614","31","075"],
["2538","31","077"],
["58607","31","079"],
["9124","31","081"],
["3423","31","083"],
["967","31","085"],
["2908","31","087"],
["10435","31","089"],
["736","31","091"],
["6274","31","093"],
["7547","31","095"],
["5217","31","097"],
["6489","31","099"],
["8368","31","101"],
["824","31","103"],
["3821","31","105"],
["8701","31","107"],
["285407","31","109"],
["36288","31","111"],
["763","31","113"],
["632","31","115"],
["539","31","117"],
["34876","31","119"],
["7845","31","121"],
["5042","31","123"],
["3735","31","125"],
["7248","31","127"],
["4500","31","129"],
["15740","31","131"],
["2773","31","133"],
["2970","31","135"],
["9188","31","137"],
["7266","31","139"],
["32237","31","141"],
["5406","31","143"],
["11055","31","145"],
["8363","31","147"],
["1526","31","149"],
["14200","31","151"],
["158840","31","153"],
["20780","31","155"],
["36970","31","157"],
["16750","31","159"],
["5469","31","161"],
["3152","31","163"],
["1311","31","165"],
["6129","31","167"],
["5228","31","169"],
["647","31","171"],
["6940","31","173"],
["4260","31","175"],
["20234","31","177"],
["9595","31","179"],
["3812","31","181"],
["818","31","183"],
["13665","31","185"],
["24877","32","001"],
["1951269","32","003"],
["46997","32","005"],
["48818","32","007"],
["783","32","009"],
["1987","32","011"],
["16528","32","013"],
["5775","32","015"],
["5345","32","017"],
["51980","32","019"],
["4772","32","021"],
["43946","32","023"],
["6753","32","027"],
["4010","32","029"],
["421407","32","031"],
["10030","32","033"],
["55274","32","510"],
["60088","33","001"],
["47818","33","003"],
["77117","33","005"],
["33055","33","007"],
["89118","33","009"],
["400721","33","011"],
["146445","33","013"],
["295223","33","015"],
["123143","33","017"],
["43742","33","019"],
["274549","34","001"],
["905116","34","003"],
["448734","34","005"],
["513657","34","007"],
["97265","34","009"],
["156898","34","011"],
["783969","34","013"],
["288288","34","015"],
["634266","34","017"],
["128349","34","019"],
["366513","34","021"],
["809858","34","023"],
["630380","34","025"],
["492276","34","027"],
["576567","34","029"],
["501226","34","031"],
["66083","34","033"],
["323444","34","035"],
["149265","34","037"],
["536499","34","039"],
["108692","34","041"],
["662564","35","001"],
["3725","35","003"],
["65645","35","005"],
["27213","35","006"],
["13750","35","007"],
["48376","35","009"],
["2022","35","011"],
["209233","35","013"],
["53829","35","015"],
["29514","35","017"],
["4687","35","019"],
["695","35","021"],
["4894","35","023"],
["64727","35","025"],
["20497","35","027"],
["17950","35","028"],
["25095","35","029"],
["71492","35","031"],
["4881","35","033"],
["63797","35","035"],
["9041","35","037"],
["40246","35","039"],
["19846","35","041"],
["131561","35","043"],
["130044","35","045"],
["29393","35","047"],
["144170","35","049"],
["11988","35","051"],
["17866","35","053"],
["32937","35","055"],
["16383","35","057"],
["4549","35","059"],
["76569","35","061"],
["304204","36","001"],
["48946","36","003"],
["1385108","36","005"],
["200600","36","007"],
["80317","36","009"],
["80026","36","011"],
["134905","36","013"],
["88830","36","015"],
["50477","36","017"],
["82128","36","019"],
["63096","36","021"],
["49336","36","023"],
["47980","36","025"],
["297488","36","027"],
["919040","36","029"],
["39370","36","031"],
["51599","36","033"],
["55531","36","035"],
["60079","36","037"],
["49221","36","039"],
["4836","36","041"],
["64519","36","043"],
["116229","36","045"],
["2504700","36","047"],
["27087","36","049"],
["65393","36","051"],
["73442","36","053"],
["744344","36","055"],
["50219","36","057"],
["1339532","36","059"],
["1585873","36","061"],
["216469","36","063"],
["234878","36","065"],
["467026","36","067"],
["107931","36","069"],
["372813","36","071"],
["42883","36","073"],
["122109","36","075"],
["62259","36","077"],
["99710","36","079"],
["2230722","36","081"],
["159429","36","083"],
["468730","36","085"],
["311687","36","087"],
["111944","36","089"],
["219607","36","091"],
["154727","36","093"],
["32749","36","095"],
["18343","36","097"],
["35251","36","099"],
["98990","36","101"],
["1493350","36","103"],
["77547","36","105"],
["51125","36","107"],
["101564","36","109"],
["182493","36","111"],
["65707","36","113"],
["63216","36","115"],
["93772","36","117"],
["949113","36","119"],
["42155","36","121"],
["25348","36","123"],
["151131","37","001"],
["37198","37","003"],
["11155","37","005"],
["26948","37","007"],
["27281","37","009"],
["17797","37","011"],
["47759","37","013"],
["21282","37","015"],
["35190","37","017"],
["107431","37","019"],
["238318","37","021"],
["90912","37","023"],
["178011","37","025"],
["83029","37","027"],
["9980","37","029"],
["66469","37","031"],
["23719","37","033"],
["154358","37","035"],
["63505","37","037"],
["27444","37","039"],
["14793","37","041"],
["10587","37","043"],
["98078","37","045"],
["58098","37","047"],
["103505","37","049"],
["319431","37","051"],
["23547","37","053"],
["33920","37","055"],
["162878","37","057"],
["41240","37","059"],
["58505","37","061"],
["267587","37","063"],
["56552","37","065"],
["350670","37","067"],
["60619","37","069"],
["206086","37","071"],
["12197","37","073"],
["8861","37","075"],
["59916","37","077"],
["21362","37","079"],
["488406","37","081"],
["54691","37","083"],
["114678","37","085"],
["59036","37","087"],
["106740","37","089"],
["24669","37","091"],
["46952","37","093"],
["5810","37","095"],
["159437","37","097"],
["40271","37","099"],
["168878","37","101"],
["10153","37","103"],
["57866","37","105"],
["59495","37","107"],
["78265","37","109"],
["44996","37","111"],
["33922","37","113"],
["20764","37","115"],
["24505","37","117"],
["919628","37","119"],
["15579","37","121"],
["27798","37","123"],
["88247","37","125"],
["95840","37","127"],
["202667","37","129"],
["22099","37","131"],
["177772","37","133"],
["133801","37","135"],
["13144","37","137"],
["40661","37","139"],
["52217","37","141"],
["13453","37","143"],
["39464","37","145"],
["168148","37","147"],
["20510","37","149"],
["141752","37","151"],
["46639","37","153"],
["134168","37","155"],
["93643","37","157"],
["138428","37","159"],
["67810","37","161"],
["63431","37","163"],
["36157","37","165"],
["60585","37","167"],
["47401","37","169"],
["73673","37","171"],
["13981","37","173"],
["33090","37","175"],
["4407","37","177"],
["201292","37","179"],
["45422","37","181"],
["900993","37","183"],
["20972","37","185"],
["13228","37","187"],
["51079","37","189"],
["122623","37","191"],
["69340","37","193"],
["81234","37","195"],
["38406","37","197"],
["17818","37","199"],
["2343","38","001"],
["11066","38","003"],
["6660","38","005"],
["783","38","007"],
["6429","38","009"],
["3151","38","011"],
["1968","38","013"],
["81308","38","015"],
["149778","38","017"],
["3993","38","019"],
["5289","38","021"],
["2071","38","023"],
["3536","38","025"],
["2385","38","027"],
["3550","38","029"],
["3343","38","031"],
["1680","38","033"],
["66861","38","035"],
["2394","38","037"],
["2420","38","039"],
["2477","38","041"],
["2435","38","043"],
["4139","38","045"],
["1990","38","047"],
["5395","38","049"],
["2809","38","051"],
["6360","38","053"],
["8962","38","055"],
["8424","38","057"],
["27471","38","059"],
["7673","38","061"],
["3126","38","063"],
["1846","38","065"],
["7413","38","067"],
["4357","38","069"],
["11451","38","071"],
["5457","38","073"],
["2470","38","075"],
["16321","38","077"],
["13937","38","079"],
["3829","38","081"],
["1321","38","083"],
["4153","38","085"],
["727","38","087"],
["24199","38","089"],
["1975","38","091"],
["21100","38","093"],
["2246","38","095"],
["8121","38","097"],
["11119","38","099"],
["61675","38","101"],
["4207","38","103"],
["22398","38","105"],
["28550","39","001"],
["106331","39","003"],
["53139","39","005"],
["101497","39","007"],
["64757","39","009"],
["45949","39","011"],
["70400","39","013"],
["44846","39","015"],
["368130","39","017"],
["28836","39","019"],
["40097","39","021"],
["138333","39","023"],
["197363","39","025"],
["42040","39","027"],
["107841","39","029"],
["36901","39","031"],
["43784","39","033"],
["1280122","39","035"],
["52959","39","037"],
["39037","39","039"],
["174214","39","041"],
["77079","39","043"],
["146156","39","045"],
["29030","39","047"],
["1163414","39","049"],
["42698","39","051"],
["30934","39","053"],
["93389","39","055"],
["161573","39","057"],
["40087","39","059"],
["802374","39","061"],
["74782","39","063"],
["32058","39","065"],
["15864","39","067"],
["28215","39","069"],
["43589","39","071"],
["29380","39","073"],
["42366","39","075"],
["59626","39","077"],
["33225","39","079"],
["69709","39","081"],
["60921","39","083"],
["230041","39","085"],
["62450","39","087"],
["166492","39","089"],
["45858","39","091"],
["301356","39","093"],
["441815","39","095"],
["43435","39","097"],
["238823","39","099"],
["66501","39","101"],
["172332","39","103"],
["23770","39","105"],
["40814","39","107"],
["102506","39","109"],
["14642","39","111"],
["535153","39","113"],
["15054","39","115"],
["34827","39","117"],
["86074","39","119"],
["14645","39","121"],
["41428","39","123"],
["19614","39","125"],
["36058","39","127"],
["55698","39","129"],
["28709","39","131"],
["161419","39","133"],
["42270","39","135"],
["34499","39","137"],
["124475","39","139"],
["78064","39","141"],
["60944","39","143"],
["79499","39","145"],
["56745","39","147"],
["49423","39","149"],
["375586","39","151"],
["541781","39","153"],
["210312","39","155"],
["92582","39","157"],
["52300","39","159"],
["28744","39","161"],
["13435","39","163"],
["212693","39","165"],
["61778","39","167"],
["114520","39","169"],
["37642","39","171"],
["125488","39","173"],
["22615","39","175"],
["22683","40","001"],
["5642","40","003"],
["14182","40","005"],
["5636","40","007"],
["22119","40","009"],
["11943","40","011"],
["42416","40","013"],
["29600","40","015"],
["115541","40","017"],
["47557","40","019"],
["46987","40","021"],
["15205","40","023"],
["2475","40","025"],
["255755","40","027"],
["5925","40","029"],
["124098","40","031"],
["6193","40","033"],
["15029","40","035"],
["69967","40","037"],
["27469","40","039"],
["41487","40","041"],
["4810","40","043"],
["4151","40","045"],
["60580","40","047"],
["27576","40","049"],
["52431","40","051"],
["4527","40","053"],
["6239","40","055"],
["2922","40","057"],
["3685","40","059"],
["12769","40","061"],
["14003","40","063"],
["26446","40","065"],
["6472","40","067"],
["10957","40","069"],
["46562","40","071"],
["15034","40","073"],
["9446","40","075"],
["11154","40","077"],
["50384","40","079"],
["34273","40","081"],
["41848","40","083"],
["9423","40","085"],
["34506","40","087"],
["33151","40","089"],
["20252","40","091"],
["7527","40","093"],
["15840","40","095"],
["41259","40","097"],
["13488","40","099"],
["70990","40","101"],
["11561","40","103"],
["10536","40","105"],
["12191","40","107"],
["718633","40","109"],
["40069","40","111"],
["47472","40","113"],
["31848","40","115"],
["16577","40","117"],
["77350","40","119"],
["45837","40","121"],
["37492","40","123"],
["69442","40","125"],
["11572","40","127"],
["3647","40","129"],
["86905","40","131"],
["25482","40","133"],
["42391","40","135"],
["45048","40","137"],
["20640","40","139"],
["7992","40","141"],
["603403","40","143"],
["73085","40","145"],
["50976","40","147"],
["11629","40","149"],
["8878","40","151"],
["20081","40","153"],
["16134","41","001"],
["85579","41","003"],
["375992","41","005"],
["37039","41","007"],
["49351","41","009"],
["63043","41","011"],
["20978","41","013"],
["22364","41","015"],
["157733","41","017"],
["107667","41","019"],
["1871","41","021"],
["7445","41","023"],
["7422","41","025"],
["22346","41","027"],
["203206","41","029"],
["21720","41","031"],
["82713","41","033"],
["66380","41","035"],
["7895","41","037"],
["351715","41","039"],
["46034","41","041"],
["116672","41","043"],
["31313","41","045"],
["315335","41","047"],
["11173","41","049"],
["735334","41","051"],
["75403","41","053"],
["1765","41","055"],
["25250","41","057"],
["75889","41","059"],
["25748","41","061"],
["7008","41","063"],
["25213","41","065"],
["529710","41","067"],
["1441","41","069"],
["99193","41","071"],
["101407","42","001"],
["1223348","42","003"],
["68941","42","005"],
["170539","42","007"],
["49762","42","009"],
["411442","42","011"],
["127089","42","013"],
["62622","42","015"],
["625249","42","017"],
["183862","42","019"],
["143679","42","021"],
["5085","42","023"],
["65249","42","025"],
["153990","42","027"],
["498886","42","029"],
["39988","42","031"],
["81642","42","033"],
["39238","42","035"],
["67295","42","037"],
["88765","42","039"],
["235406","42","041"],
["268100","42","043"],
["558979","42","045"],
["31946","42","047"],
["280566","42","049"],
["136606","42","051"],
["7716","42","053"],
["149618","42","055"],
["14845","42","057"],
["38686","42","059"],
["45913","42","061"],
["88880","42","063"],
["45200","42","065"],
["24636","42","067"],
["214437","42","069"],
["519445","42","071"],
["91108","42","073"],
["133568","42","075"],
["349497","42","077"],
["320918","42","079"],
["116111","42","081"],
["43450","42","083"],
["116638","42","085"],
["46682","42","087"],
["169842","42","089"],
["799874","42","091"],
["18267","42","093"],
["297735","42","095"],
["94528","42","097"],
["45969","42","099"],
["1526006","42","101"],
["57369","42","103"],
["17457","42","105"],
["148289","42","107"],
["39702","42","109"],
["77742","42","111"],
["6428","42","113"],
["43356","42","115"],
["41981","42","117"],
["44947","42","119"],
["54984","42","121"],
["41815","42","123"],
["207820","42","125"],
["52822","42","127"],
["365169","42","129"],
["28276","42","131"],
["434972","42","133"],
["49875","44","001"],
["166158","44","003"],
["82888","44","005"],
["626667","44","007"],
["126979","44","009"],
["25417","45","001"],
["160099","45","003"],
["10419","45","005"],
["187126","45","007"],
["15987","45","009"],
["22621","45","011"],
["162233","45","013"],
["177843","45","015"],
["15175","45","017"],
["350209","45","019"],
["55342","45","021"],
["33140","45","023"],
["46734","45","025"],
["34971","45","027"],
["38892","45","029"],
["68681","45","031"],
["32062","45","033"],
["136555","45","035"],
["26985","45","037"],
["23956","45","039"],
["136885","45","041"],
["60158","45","043"],
["451225","45","045"],
["69661","45","047"],
["21090","45","049"],
["269291","45","051"],
["24777","45","053"],
["61697","45","055"],
["76652","45","057"],
["66537","45","059"],
["19220","45","061"],
["262391","45","063"],
["10233","45","065"],
["33062","45","067"],
["28933","45","069"],
["37508","45","071"],
["74273","45","073"],
["92501","45","075"],
["119224","45","077"],
["384504","45","079"],
["19875","45","081"],
["284307","45","083"],
["107456","45","085"],
["28961","45","087"],
["34423","45","089"],
["226073","45","091"],
["2710","46","003"],
["17398","46","005"],
["3431","46","007"],
["7070","46","009"],
["31965","46","011"],
["36531","46","013"],
["5255","46","015"],
["1912","46","017"],
["10110","46","019"],
["1466","46","021"],
["9129","46","023"],
["3691","46","025"],
["13864","46","027"],
["27227","46","029"],
["4050","46","031"],
["8216","46","033"],
["19504","46","035"],
["5710","46","037"],
["4364","46","039"],
["5301","46","041"],
["3002","46","043"],
["4071","46","045"],
["7094","46","047"],
["2364","46","049"],
["7356","46","051"],
["4271","46","053"],
["1937","46","055"],
["5903","46","057"],
["3431","46","059"],
["3331","46","061"],
["1255","46","063"],
["17022","46","065"],
["7343","46","067"],
["1420","46","069"],
["3031","46","071"],
["2071","46","073"],
["1006","46","075"],
["5148","46","077"],
["11200","46","079"],
["24097","46","081"],
["44828","46","083"],
["3755","46","085"],
["5618","46","087"],
["2459","46","089"],
["4656","46","091"],
["25434","46","093"],
["2048","46","095"],
["2389","46","097"],
["169468","46","099"],
["6486","46","101"],
["100948","46","103"],
["2982","46","105"],
["2329","46","107"],
["10149","46","109"],
["2355","46","111"],
["13586","46","113"],
["6415","46","115"],
["2966","46","117"],
["1373","46","119"],
["9612","46","121"],
["5644","46","123"],
["8347","46","125"],
["14399","46","127"],
["5438","46","129"],
["22438","46","135"],
["2801","46","137"],
["75129","47","001"],
["45058","47","003"],
["16489","47","005"],
["12876","47","007"],
["123010","47","009"],
["98963","47","011"],
["40716","47","013"],
["13801","47","015"],
["28522","47","017"],
["57424","47","019"],
["39105","47","021"],
["17131","47","023"],
["32213","47","025"],
["7861","47","027"],
["35662","47","029"],
["52796","47","031"],
["14586","47","033"],
["56053","47","035"],
["626681","47","037"],
["11757","47","039"],
["18723","47","041"],
["49666","47","043"],
["38335","47","045"],
["38413","47","047"],
["17959","47","049"],
["41052","47","051"],
["49683","47","053"],
["29485","47","055"],
["22657","47","057"],
["68831","47","059"],
["13703","47","061"],
["62544","47","063"],
["336463","47","065"],
["6819","47","067"],
["27253","47","069"],
["26026","47","071"],
["56833","47","073"],
["18787","47","075"],
["27769","47","077"],
["32330","47","079"],
["24690","47","081"],
["8426","47","083"],
["18538","47","085"],
["11638","47","087"],
["51407","47","089"],
["18244","47","091"],
["432226","47","093"],
["7832","47","095"],
["27815","47","097"],
["41869","47","099"],
["12161","47","101"],
["33361","47","103"],
["48556","47","105"],
["52266","47","107"],
["26075","47","109"],
["22248","47","111"],
["98294","47","113"],
["28237","47","115"],
["30617","47","117"],
["80956","47","119"],
["11753","47","121"],
["44519","47","123"],
["172331","47","125"],
["6362","47","127"],
["21987","47","129"],
["31807","47","131"],
["22083","47","133"],
["7915","47","135"],
["5077","47","137"],
["16825","47","139"],
["72321","47","141"],
["31809","47","143"],
["54181","47","145"],
["66283","47","147"],
["262604","47","149"],
["22228","47","151"],
["14112","47","153"],
["89889","47","155"],
["927644","47","157"],
["19166","47","159"],
["13324","47","161"],
["156823","47","163"],
["160645","47","165"],
["61081","47","167"],
["7870","47","169"],
["18313","47","171"],
["19109","47","173"],
["5548","47","175"],
["39839","47","177"],
["122979","47","179"],
["17021","47","181"],
["35021","47","183"],
["25841","47","185"],
["183182","47","187"],
["113993","47","189"],
["58458","48","001"],
["14786","48","003"],
["86771","48","005"],
["23158","48","007"],
["9054","48","009"],
["1901","48","011"],
["44911","48","013"],
["28417","48","015"],
["7165","48","017"],
["20485","48","019"],
["74171","48","021"],
["3726","48","023"],
["31861","48","025"],
["310235","48","027"],
["1714773","48","029"],
["10497","48","031"],
["641","48","033"],
["18212","48","035"],
["92565","48","037"],
["313166","48","039"],
["194851","48","041"],
["9232","48","043"],
["1637","48","045"],
["7223","48","047"],
["38106","48","049"],
["17187","48","051"],
["42750","48","053"],
["38066","48","055"],
["21381","48","057"],
["13544","48","059"],
["406220","48","061"],
["12401","48","063"],
["6182","48","065"],
["30464","48","067"],
["8062","48","069"],
["35096","48","071"],
["50845","48","073"],
["7041","48","075"],
["10752","48","077"],
["3127","48","079"],
["3320","48","081"],
["8895","48","083"],
["782341","48","085"],
["3057","48","087"],
["20874","48","089"],
["108472","48","091"],
["13974","48","093"],
["4087","48","095"],
["38437","48","097"],
["75388","48","099"],
["1505","48","101"],
["4375","48","103"],
["3719","48","105"],
["6059","48","107"],
["2398","48","109"],
["6703","48","111"],
["2368139","48","113"],
["13833","48","115"],
["19372","48","117"],
["5231","48","119"],
["662614","48","121"],
["20097","48","123"],
["2444","48","125"],
["9996","48","127"],
["3677","48","129"],
["11782","48","131"],
["18583","48","133"],
["137130","48","135"],
["2002","48","137"],
["149610","48","139"],
["800647","48","141"],
["37890","48","143"],
["17866","48","145"],
["33915","48","147"],
["24554","48","149"],
["3974","48","151"],
["6446","48","153"],
["1336","48","155"],
["585375","48","157"],
["10605","48","159"],
["19816","48","161"],
["17217","48","163"],
["17526","48","165"],
["291309","48","167"],
["6461","48","169"],
["24837","48","171"],
["1226","48","173"],
["7210","48","175"],
["19807","48","177"],
["22535","48","179"],
["120877","48","181"],
["121730","48","183"],
["26604","48","185"],
["131533","48","187"],
["36273","48","189"],
["3353","48","191"],
["8517","48","193"],
["5613","48","195"],
["4139","48","197"],
["54635","48","199"],
["4092459","48","201"],
["65631","48","203"],
["6062","48","205"],
["5899","48","207"],
["157107","48","209"],
["3807","48","211"],
["78532","48","213"],
["774769","48","215"],
["35089","48","217"],
["22935","48","219"],
["51182","48","221"],
["35161","48","223"],
["23732","48","225"],
["35012","48","227"],
["3476","48","229"],
["86129","48","231"],
["22150","48","233"],
["1599","48","235"],
["9044","48","237"],
["14075","48","239"],
["35710","48","241"],
["2342","48","243"],
["252273","48","245"],
["5300","48","247"],
["40838","48","249"],
["150934","48","251"],
["20202","48","253"],
["14824","48","255"],
["103350","48","257"],
["33410","48","259"],
["416","48","261"],
["808","48","263"],
["49625","48","265"],
["4607","48","267"],
["286","48","269"],
["3598","48","271"],
["32061","48","273"],
["3719","48","275"],
["49793","48","277"],
["13977","48","279"],
["19677","48","281"],
["6886","48","283"],
["19263","48","285"],
["16612","48","287"],
["16801","48","289"],
["75643","48","291"],
["23384","48","293"],
["3302","48","295"],
["11531","48","297"],
["19301","48","299"],
["82","48","301"],
["278831","48","303"],
["5915","48","305"],
["8283","48","307"],
["234906","48","309"],
["707","48","311"],
["13664","48","313"],
["10546","48","315"],
["4799","48","317"],
["4012","48","319"],
["36702","48","321"],
["54258","48","323"],
["46006","48","325"],
["2242","48","327"],
["136872","48","329"],
["24757","48","331"],
["4936","48","333"],
["9403","48","335"],
["19719","48","337"],
["455746","48","339"],
["21904","48","341"],
["12934","48","343"],
["1210","48","345"],
["64524","48","347"],
["47735","48","349"],
["14445","48","351"],
["15216","48","353"],
["340223","48","355"],
["10223","48","357"],
["2052","48","359"],
["81837","48","361"],
["28111","48","363"],
["23796","48","365"],
["116927","48","367"],
["10269","48","369"],
["15507","48","371"],
["45413","48","373"],
["121073","48","375"],
["7818","48","377"],
["10914","48","379"],
["120725","48","381"],
["3367","48","383"],
["3309","48","385"],
["12860","48","387"],
["13783","48","389"],
["7383","48","391"],
["929","48","393"],
["16622","48","395"],
["78337","48","397"],
["10501","48","399"],
["53330","48","401"],
["10834","48","403"],
["8865","48","405"],
["26384","48","407"],
["64804","48","409"],
["6131","48","411"],
["3461","48","413"],
["16921","48","415"],
["3378","48","417"],
["25448","48","419"],
["3034","48","421"],
["209714","48","423"],
["8490","48","425"],
["60968","48","427"],
["9630","48","429"],
["1143","48","431"],
["1490","48","433"],
["4128","48","435"],
["7854","48","437"],
["1809034","48","439"],
["131506","48","441"],
["984","48","443"],
["12651","48","445"],
["1641","48","447"],
["32334","48","449"],
["110224","48","451"],
["1024266","48","453"],
["14585","48","455"],
["21766","48","457"],
["39309","48","459"],
["3355","48","461"],
["26405","48","463"],
["48879","48","465"],
["52579","48","467"],
["86793","48","469"],
["67861","48","471"],
["43205","48","473"],
["10658","48","475"],
["33718","48","477"],
["250304","48","479"],
["41280","48","481"],
["5410","48","483"],
["131500","48","485"],
["13535","48","487"],
["22134","48","489"],
["422679","48","491"],
["42918","48","493"],
["7110","48","495"],
["59127","48","497"],
["41964","48","499"],
["7879","48","501"],
["18550","48","503"],
["14018","48","505"],
["11677","48","507"],
["6629","49","001"],
["49975","49","003"],
["112656","49","005"],
["21403","49","007"],
["1059","49","009"],
["306479","49","011"],
["18607","49","013"],
["10976","49","015"],
["5172","49","017"],
["9225","49","019"],
["46163","49","021"],
["10246","49","023"],
["7125","49","025"],
["12503","49","027"],
["9469","49","029"],
["1556","49","031"],
["2264","49","033"],
["1029655","49","035"],
["14746","49","037"],
["27822","49","039"],
["20802","49","041"],
["36324","49","043"],
["58218","49","045"],
["32588","49","047"],
["516564","49","049"],
["23530","49","051"],
["138115","49","053"],
["2778","49","055"],
["231236","49","057"],
["36821","50","001"],
["37125","50","003"],
["31227","50","005"],
["156545","50","007"],
["6306","50","009"],
["47746","50","011"],
["6970","50","013"],
["24475","50","015"],
["28936","50","017"],
["27231","50","019"],
["61642","50","021"],
["59534","50","023"],
["44513","50","025"],
["56670","50","027"],
["33164","51","001"],
["98970","51","003"],
["16250","51","005"],
["12690","51","007"],
["32353","51","009"],
["14973","51","011"],
["207627","51","013"],
["73750","51","015"],
["4731","51","017"],
["68676","51","019"],
["6824","51","021"],
["33148","51","023"],
["17434","51","025"],
["24098","51","027"],
["17146","51","029"],
["54842","51","031"],
["28545","51","033"],
["30042","51","035"],
["7256","51","036"],
["12586","51","037"],
["316236","51","041"],
["14034","51","043"],
["5190","51","045"],
["46689","51","047"],
["10052","51","049"],
["15903","51","051"],
["28001","51","053"],
["11151","51","057"],
["1081726","51","059"],
["65203","51","061"],
["15279","51","063"],
["25691","51","065"],
["56159","51","067"],
["78305","51","069"],
["17286","51","071"],
["36858","51","073"],
["21717","51","075"],
["15533","51","077"],
["18403","51","079"],
["12243","51","081"],
["36241","51","083"],
["99863","51","085"],
["306935","51","087"],
["54151","51","089"],
["2321","51","091"],
["35270","51","093"],
["67009","51","095"],
["6945","51","097"],
["23584","51","099"],
["15935","51","101"],
["11391","51","103"],
["25587","51","105"],
["312311","51","107"],
["33153","51","109"],
["12914","51","111"],
["13308","51","113"],
["8978","51","115"],
["32727","51","117"],
["10959","51","119"],
["94392","51","121"],
["15020","51","125"],
["18429","51","127"],
["12389","51","131"],
["12330","51","133"],
["15853","51","135"],
["33481","51","137"],
["24042","51","139"],
["18490","51","141"],
["63506","51","143"],
["28046","51","145"],
["23368","51","147"],
["35725","51","149"],
["402002","51","153"],
["34872","51","155"],
["7373","51","157"],
["9254","51","159"],
["92376","51","161"],
["22307","51","163"],
["76314","51","165"],
["28897","51","167"],
["23177","51","169"],
["41993","51","171"],
["32208","51","173"],
["18570","51","175"],
["122397","51","177"],
["128961","51","179"],
["7058","51","181"],
["12087","51","183"],
["45078","51","185"],
["37575","51","187"],
["54876","51","191"],
["17454","51","193"],
["41452","51","195"],
["29235","51","197"],
["65464","51","199"],
["139966","51","510"],
["6222","51","515"],
["17835","51","520"],
["6650","51","530"],
["43475","51","540"],
["222209","51","550"],
["17411","51","570"],
["5961","51","580"],
["43055","51","590"],
["5927","51","595"],
["22565","51","600"],
["12332","51","610"],
["8582","51","620"],
["24286","51","630"],
["7042","51","640"],
["137436","51","650"],
["48914","51","660"],
["22591","51","670"],
["7042","51","678"],
["75568","51","680"],
["37821","51","683"],
["14273","51","685"],
["13821","51","690"],
["180719","51","700"],
["242803","51","710"],
["3958","51","720"],
["32420","51","730"],
["12150","51","735"],
["95535","51","740"],
["16408","51","750"],
["204214","51","760"],
["97032","51","770"],
["24802","51","775"],
["23746","51","790"],
["84585","51","800"],
["437994","51","810"],
["21006","51","820"],
["14068","51","830"],
["26203","51","840"],
["18728","53","001"],
["21623","53","003"],
["175177","53","005"],
["72453","53","007"],
["71404","53","009"],
["425363","53","011"],
["4078","53","013"],
["102410","53","015"],
["38431","53","017"],
["7551","53","019"],
["78163","53","021"],
["2266","53","023"],
["89120","53","025"],
["72797","53","027"],
["78506","53","029"],
["29872","53","031"],
["1931249","53","033"],
["251133","53","035"],
["40915","53","037"],
["20318","53","039"],
["75455","53","041"],
["10570","53","043"],
["60699","53","045"],
["41120","53","047"],
["20920","53","049"],
["13001","53","051"],
["795225","53","053"],
["15769","53","055"],
["116901","53","057"],
["11066","53","059"],
["713335","53","061"],
["471221","53","063"],
["43531","53","065"],
["252264","53","067"],
["3978","53","069"],
["58781","53","071"],
["201140","53","073"],
["44776","53","075"],
["243231","53","077"],
["16589","54","001"],
["104169","54","003"],
["24629","54","005"],
["14523","54","007"],
["24069","54","009"],
["96319","54","011"],
["7627","54","013"],
["9386","54","015"],
["8202","54","017"],
["46039","54","019"],
["8693","54","021"],
["11937","54","023"],
["35480","54","025"],
["23964","54","027"],
["30676","54","029"],
["14025","54","031"],
["69099","54","033"],
["29211","54","035"],
["53498","54","037"],
["193063","54","039"],
["16372","54","041"],
["21720","54","043"],
["36743","54","045"],
["22113","54","047"],
["56418","54","049"],
["33107","54","051"],
["27324","54","053"],
["62264","54","055"],
["28212","54","057"],
["26839","54","059"],
["96189","54","061"],
["13502","54","063"],
["17541","54","065"],
["26233","54","067"],
["44443","54","069"],
["7695","54","071"],
["7605","54","073"],
["8719","54","075"],
["33520","54","077"],
["55486","54","079"],
["78859","54","081"],
["29405","54","083"],
["10449","54","085"],
["14926","54","087"],
["13927","54","089"],
["16895","54","091"],
["7141","54","093"],
["9208","54","095"],
["24254","54","097"],
["42481","54","099"],
["9154","54","101"],
["16583","54","103"],
["5717","54","105"],
["86956","54","107"],
["23796","54","109"],
["20875","55","001"],
["16157","55","003"],
["45870","55","005"],
["15014","55","007"],
["248007","55","009"],
["13587","55","011"],
["15457","55","013"],
["48971","55","015"],
["62415","55","017"],
["34690","55","019"],
["56833","55","021"],
["16644","55","023"],
["488073","55","025"],
["88759","55","027"],
["27785","55","029"],
["44159","55","031"],
["43857","55","033"],
["98736","55","035"],
["4423","55","037"],
["101633","55","039"],
["9304","55","041"],
["51208","55","043"],
["36842","55","045"],
["19051","55","047"],
["23687","55","049"],
["5916","55","051"],
["20449","55","053"],
["83686","55","055"],
["26664","55","057"],
["166426","55","059"],
["20574","55","061"],
["114638","55","063"],
["16836","55","065"],
["19977","55","067"],
["28743","55","069"],
["81442","55","071"],
["134063","55","073"],
["41749","55","075"],
["15404","55","077"],
["4232","55","078"],
["947735","55","079"],
["44673","55","081"],
["37660","55","083"],
["35998","55","085"],
["176695","55","087"],
["86395","55","089"],
["7469","55","091"],
["41019","55","093"],
["44205","55","095"],
["70019","55","097"],
["14159","55","099"],
["195408","55","101"],
["18021","55","103"],
["160331","55","105"],
["14755","55","107"],
["84345","55","109"],
["61976","55","111"],
["16557","55","113"],
["41949","55","115"],
["115507","55","117"],
["20689","55","119"],
["28816","55","121"],
["29773","55","123"],
["21430","55","125"],
["102228","55","127"],
["15911","55","129"],
["131887","55","131"],
["389891","55","133"],
["52410","55","135"],
["24496","55","137"],
["166994","55","139"],
["74749","55","141"],
["36299","56","001"],
["11668","56","003"],
["46133","56","005"],
["15885","56","007"],
["13833","56","009"],
["7083","56","011"],
["40123","56","013"],
["13249","56","015"],
["4812","56","017"],
["8569","56","019"],
["91738","56","021"],
["18106","56","023"],
["75450","56","025"],
["2484","56","027"],
["28205","56","029"],
["8667","56","031"],
["29116","56","033"],
["10247","56","035"],
["43806","56","037"],
["21294","56","039"],
["21118","56","041"],
["8533","56","043"],
["7208","56","045"],
["19483","72","001"],
["41959","72","003"],
["60949","72","005"],
["28659","72","007"],
["25900","72","009"],
["29261","72","011"],
["96440","72","013"],
["19575","72","015"],
["24816","72","017"],
["30318","72","019"],
["208116","72","021"],
["50917","72","023"],
["142893","72","025"],
["35159","72","027"],
["47648","72","029"],
["176762","72","031"],
["28140","72","033"],
["48119","72","035"],
["13631","72","037"],
["18782","72","039"],
["43480","72","041"],
["40512","72","043"],
["20778","72","045"],
["37142","72","047"],
["1818","72","049"],
["38165","72","051"],
["36993","72","053"],
["12680","72","054"],
["19427","72","055"],
["45362","72","057"],
["21581","72","059"],
["97924","72","061"],
["45369","72","063"],
["41953","72","065"],
["17250","72","067"],
["58466","72","069"],
["45631","72","071"],
["16642","72","073"],
["50747","72","075"],
["40290","72","077"],
["25753","72","079"],
["30753","72","081"],
["9881","72","083"],
["38675","72","085"],
["30060","72","087"],
["20068","72","089"],
["44113","72","091"],
["6276","72","093"],
["12225","72","095"],
["89080","72","097"],
["40109","72","099"],
["32610","72","101"],
["26720","72","103"],
["30402","72","105"],
["23423","72","107"],
["19277","72","109"],
["24282","72","111"],
["166327","72","113"],
["25919","72","115"],
["15200","72","117"],
["54304","72","119"],
["25265","72","121"],
["31078","72","123"],
["35527","72","125"],
["395326","72","127"],
["41058","72","129"],
["42430","72","131"],
["23274","72","133"],
["74066","72","135"],
["89609","72","137"],
["74842","72","139"],
["33149","72","141"],
["39951","72","143"],
["59662","72","145"],
["9301","72","147"],
["26073","72","149"],
["37941","72","151"],
["42043","72","153"]]